{
  "schemaVersion": 1,
  "id": "moenchantments",
  "version": "${version}",

  "name": "Mo'Enchantments",
  "description": "Adds new Enchantments",
  "authors": [
    "biom4st3r"
  ],
  "contact": {
    "homepage": "https://minecraft.curseforge.com/projects/fabric-more-enchantments",
    "sources": "https://gitlab.com/biom4st3r/moenchantments"
  },

  "license": "GPL",
  "icon": "assets/moenchantments/icon.png",

  "environment": "*",
  "entrypoints": {
    "main": [
      "com.biom4st3r.moenchantments.ModInit"
    ],
    "client": [
      "com.biom4st3r.moenchantments.client.ClientModInit"
    ],
    "fabric-gametest": [
      "com.biom4st3r.moenchantments.registration.Tests"
    ],
    "preLaunch": [
      "com.biom4st3r.moenchantments.PreLaunch"
    ]
  },
  "mixins": [
    "biom4st3r_moenchantments.json"
  ],

  "depends": {
    "fabricloader": ">=0.12.12",
    "fabric":">=0.39.0"
  },
  "accessWidener":"widenme.baby"
}
