{
    "replace":false,
    "values":[
        "minecraft:diamond_axe",
        "minecraft:golden_axe",
        "minecraft:wooden_axe",
        "minecraft:iron_axe",
        "minecraft:stone_axe",
        "minecraft:netherite_axe"
    ]
}